[
    {
      "name": "COUNTRY",
      "properties" : [
        {
        "name": "table_name",
        "type": {
          "datatype": "varchar",
          "width": 50
        },
        "options": {
          "nullable": false
        }},
        {"name": "action",
        "type": {
          "datatype": "varchar",
          "width": 30
        },
        "options": {
          "nullable": false
        }}
      ],
      "columns": [
        {
          "name": "country_code",
          "type": {
            "datatype": "varchar",
            "length": 8
          },
          "options": {
            "nullable": false
          }
        },
        {
          "name": "country_description",
          "type": {
            "datatype": "varchar",
            "length": 30
          },
          "options": {
            "nullable": true
          }
        },
        {
          "name": "gst_rate",
          "type": {
            "datatype": "int",
            "width": 4
          },
          "options": {
            "nullable": true
          }
        },
        {
          "name": "gst_ratio",
          "type": {
            "datatype": "int",
            "width": 4
          },
          "options": {
            "nullable": true
          }
        },
        {
          "name": "inv_name",
          "type": {
            "datatype": "varchar",
            "length": 10
          },
          "options": {
            "nullable": true
          }
        },
        {
          "name": "clg_code",
          "type": {
            "datatype": "varchar",
            "length": 10
          },
          "options": {
            "nullable": true
          }
        },
        {
          "name": "currency_code",
          "type": {
            "datatype": "varchar",
            "length": 10
          },
          "options": {
            "nullable": true
          }
        },
        {
          "name": "automaton_country_id",
          "type": {
            "datatype": "int",
            "width": 4
          },
          "options": {
            "nullable": true
          }
        }
      ]
    }
  ]