[
    {
      "name": "MERCH_UDA_HIER_DEFAULT",
      "properties" : [
        {
        "name": "table_name",
        "type": {
          "datatype": "varchar",
          "width": 50
        },
        "options": {
          "nullable": false
        }},
        {"name": "action",
        "type": {
          "datatype": "varchar",
          "width": 30
        },
        "options": {
          "nullable": false
        }}
      ],
      "columns": [
        {
          "name": "uda_hier_def_id",
          "type": {
            "datatype": "int",
            "width": 4
          },
          "options": {
            "nullable": true,
            "default": "not"
          }
        },
        {
          "name": "uda_value_id",
          "type": {
            "datatype": "int",
            "width": 4
          },
          "options": {
            "nullable": false
          }
        },
        {
          "name": "dep_id",
          "type": {
            "datatype": "int",
            "width": 4
          },
          "options": {
            "nullable": true
          }
        },
        {
          "name": "class_id",
          "type": {
            "datatype": "int",
            "width": 4
          },
          "options": {
            "nullable": true
          }
        },
        {
          "name": "subclass_id",
          "type": {
            "datatype": "int",
            "width": 4
          },
          "options": {
            "nullable": true
          }
        },
        {
          "name": "merch_level",
          "type": {
            "datatype": "int",
            "width": 1
          },
          "options": {
            "nullable": false
          }
        },
        {
          "name": "deleted",
          "type": {
            "datatype": "varchar",
            "length": 1
          },
          "options": {
            "nullable": false,
            "default": "N"
          }
        },
        {
          "name": "created_by",
          "type": {
            "datatype": "varchar",
            "length": 40
          },
          "options": {
            "nullable": false
          }
        },
        {
          "name": "created_date",
          "type": {
            "datatype": "date",
            "fractional": 0
          },
          "options": {
            "nullable": false
          }
        },
        {
          "name": "last_modified_by",
          "type": {
            "datatype": "varchar",
            "length": 40
          },
          "options": {
            "nullable": true
          }
        },
        {
          "name": "last_modified_date",
          "type": {
            "datatype": "date",
            "fractional": 0
          },
          "options": {
            "nullable": true
          }
        }
      ]
    }
  ]