[
    {
      "name": "PRODUCT_CORE_RANGE",
      "properties" : [
        {
        "name": "table_name",
        "type": {
          "datatype": "varchar",
          "width": 50
        },
        "options": {
          "nullable": false
        }},
        {"name": "action",
        "type": {
          "datatype": "varchar",
          "width": 30
        },
        "options": {
          "nullable": false
        }}
      ],
      "columns": [
        {
          "name": "prod_core_range",
          "type": {
            "datatype": "varchar",
            "length": 10
          },
          "options": {
            "nullable": false
          }
        },
        {
          "name": "description",
          "type": {
            "datatype": "varchar",
            "length": 60
          },
          "options": {
            "nullable": true
          }
        },
        {
          "name": "last_update_date",
          "type": {
            "datatype": "date",
            "fractional": 0
          },
          "options": {
            "nullable": true
          }
        },
        {
          "name": "last_update_user",
          "type": {
            "datatype": "varchar",
            "length": 30
          },
          "options": {
            "nullable": true
          }
        }
      ]
    }
  ]